\relax 
\citation{HawSut09}
\citation{XIOS12}
\citation{BuiEA05}
\citation{MeeEA14}
\citation{HawSut09}
\citation{Parker10}
\citation{MizEA09}
\citation{YeaEA18}
\citation{LawEA18}
\Newlabel{ncas}{a}
\Newlabel{met}{b}
\Newlabel{comp}{c}
\Newlabel{epcc}{d}
\@writefile{toc}{\contentsline {section}{\numberline {1}Introduction}{1}}
\citation{REFNEEDED}
\citation{REFNEEDED}
\citation{REFNEEDED}
\citation{REFNEEDED}
\citation{XIOS12}
\citation{BesEA16}
\@writefile{toc}{\contentsline {section}{\numberline {2}Context}{2}}
\newlabel{context}{{2}{2}}
\@writefile{toc}{\contentsline {subsection}{\numberline {2.1}The Unified Model}{2}}
\@writefile{lof}{\contentsline {figure}{\numberline {1}{\ignorespaces Schematic of the existing UK climate mode.}}{2}}
\newlabel{coupled}{{1}{2}}
\@writefile{toc}{\contentsline {subsubsection}{\numberline {2.1.1}Climate Configuration}{2}}
\@writefile{toc}{\contentsline {subsubsection}{\numberline {2.1.2}Current UM IO scheme}{2}}
\@writefile{toc}{\contentsline {subsubsection}{\numberline {2.1.3}Resolution and Performance}{2}}
\@writefile{lof}{\contentsline {figure}{\numberline {2}{\ignorespaces The Unified Model Configuration and output data flow (for an atmosphere only instance): configuration files define the domain decomposition (the number of processing engines, PEs) and the outputs required. Output is written to ``STASH'' and then, in the IO server configurtion, written to multiple IO server instances, which each write to disk. One MPI context (shown in yellow) covers the entire activity. Control flow shown in black, data flow in red. }}{3}}
\newlabel{uma-fig}{{2}{3}}
\@writefile{toc}{\contentsline {subsection}{\numberline {2.2}XIOS}{3}}
\@writefile{lof}{\contentsline {figure}{\numberline {3}{\ignorespaces UM atmosphere strong scaling for a high resolution (N512) model with and without IO, and for a low resolution (N96) model with atmospheric chemistry included.}}{3}}
\newlabel{scaling-um-fig}{{3}{3}}
\@writefile{toc}{\contentsline {subsubsection}{\numberline {2.2.1}XML}{3}}
\@writefile{toc}{\contentsline {section}{\numberline {3}Software Structure}{4}}
\newlabel{software}{{3}{4}}
\@writefile{toc}{\contentsline {subsection}{\numberline {3.1}XIOS in the UM}{4}}
\@writefile{lof}{\contentsline {figure}{\numberline {4}{\ignorespaces Maintaining the look and feel of UM diagnostics: the Rose GUI is used to configure both the UM atmosphere via namelists, and the XIOS output. The UM reads the XML files and integrates them with the STASH system and sends the fields to the XIOS server.}}{4}}
\newlabel{fig-xconfig}{{4}{4}}
\@writefile{lof}{\contentsline {figure}{\numberline {5}{\ignorespaces  Work flow for creating XML files from STASH requests. The familiar Rose GUI isolates the user from details about XIOS XML. \texttt  {stash2xiosxml} reads configuration files generated by Rose to create an XML description of the diagnostic output. }}{4}}
\newlabel{stash2xiosxml}{{5}{4}}
\@writefile{lof}{\contentsline {figure}{\numberline {6}{\ignorespaces  Areas in the UM where use of XIOS impacts the code. Diagnostics are intercepted in the routine stash. All other UM IO (logging, checkpointing, and diagnostics not directed to XIOS) is handled in the traditional manner. }}{5}}
\newlabel{um-xios-code}{{6}{5}}
\@writefile{toc}{\contentsline {subsubsection}{\numberline {3.1.1}STASH to XML utility}{5}}
\@writefile{toc}{\contentsline {subsubsection}{\numberline {3.1.2}New code in the UM}{5}}
\@writefile{toc}{\contentsline {subsubsection}{\numberline {3.1.3}Build system and job submission}{5}}
\@writefile{lof}{\contentsline {figure}{\numberline {7}{\ignorespaces  Key control and data flow concepts for XIOS control of a UM ensemble. The XIOS controls the output of each UM instance by exploiting XIOS clients within each process of each UM instance. Output from the clients goes through XIOS server instances to disk. {\it  \color  {red}Finish when understood} }}{5}}
\newlabel{fig-xios-layout}{{7}{5}}
\@writefile{toc}{\contentsline {subsection}{\numberline {3.2}XIOS ensemble}{5}}
\@writefile{toc}{\contentsline {subsubsection}{\numberline {3.2.1}UM code for an ensemble}{5}}
\@writefile{toc}{\contentsline {subsubsection}{\numberline {3.2.2}Rose ensemble configuration}{5}}
\@writefile{toc}{\contentsline {subsection}{\numberline {3.3}Controlling the Ensemble}{5}}
\@writefile{toc}{\contentsline {subsection}{\numberline {3.4}Ensemble Statistics}{5}}
\@writefile{toc}{\contentsline {subsection}{\numberline {3.5}Configuring Ensemble Output}{5}}
\bibstyle{elsarticle-num}
\bibdata{ensembles}
\@writefile{lot}{\contentsline {table}{\numberline {1}{\ignorespaces Maximum core counts for the largest ensembles}}{6}}
\@writefile{lof}{\contentsline {figure}{\numberline {8}{\ignorespaces {\it  \color  {red}We want to have results from 10, 20, 50, 100 member N96 and 1,2,5 and 10 member N512}Scaling curves for ensemble writing using N96 and N512 ensembles for single file output and multiple file output. {\it  \color  {red}Need to add flat lines for perfect performance.}}}{6}}
\@writefile{toc}{\contentsline {section}{\numberline {4}Results}{6}}
\newlabel{results}{{4}{6}}
\@writefile{toc}{\contentsline {subsection}{\numberline {4.1}Single UM}{6}}
\@writefile{toc}{\contentsline {subsection}{\numberline {4.2}UM ensembles}{6}}
\@writefile{toc}{\contentsline {section}{\numberline {5}Related Work}{6}}
\newlabel{related}{{5}{6}}
\@writefile{toc}{\contentsline {section}{\numberline {6}Summary and Further Work}{6}}
\newlabel{summary}{{6}{6}}
